0x01    *  *  *
0x02 *           *
0x04 *        *  *
0x08 *     *     *
0x10 *  *        *
0x20 *           *
0x40    *  *  *
     3e 51 49 45 3e

0x01       *
0x02    *  *
0x04       *
0x08       *
0x10       *
0x20       *
0x40    *  *  * 
     00 42 7f 40 00

0x01    *  *  *
0x02 *           *
0x04             *
0x08          *
0x10       *
0x20    *
0x40 *  *  *  *  *
     42 61 51 49 46

0x01    *  *  *
0x02 *           *
0x04             *
0x08       *  *
0x10             *
0x20 *           *
0x40    *  *  *
     22 41 49 49 36

0x01          *
0x02       *  *
0x04    *     *
0x08 *        *
0x10 *  *  *  *  *
0x20          *
0x40          *
     18 14 12 7f 10

0x01 *  *  *  *  *
0x02 *
0x04 *
0x08 *  *  *  *
0x10             *
0x20             *
0x40 *  *  *  *
     4f 49 49 49 31

0x01    *  *  *
0x02 *           *
0x04 *
0x08 *  *  *  *
0x10 *           *
0x20 *           *
0x40    *  *  *
     3e 49 49 49 32

0x01 *  *  *  *  *
0x02             *
0x04             *
0x08          *
0x10       *
0x20       *
0x40       *
     01 01 71 09 07

0x01    *  *  *
0x02 *           *
0x04 *           *
0x08    *  *  *
0x10 *           *
0x20 *           *
0x40    *  *  *
     36 49 49 49 36

0x01    *  *  *
0x02 *           *
0x04 *           *
0x08    *  *  *  *
0x10             *
0x20 *           *
0x40    *  *  *
     26 49 49 49 3e







{0x3e, 0x51, 0x49, 0x45, 0x3e, 0x00},
{0x00, 0x42, 0x7f, 0x40, 0x00, 0x00},
{0x42, 0x61, 0x51, 0x49, 0x46, 0x00},
{0x22, 0x41, 0x49, 0x49, 0x36, 0x00},
{0x18, 0x14, 0x12, 0x7f, 0x10, 0x00},
{0x4f, 0x49, 0x49, 0x49, 0x31, 0x00},
{0x3e, 0x49, 0x49, 0x49, 0x32, 0x00},
{0x01, 0x01, 0x71, 0x09, 0x07, 0x00},
{0x36, 0x49, 0x49, 0x49, 0x36, 0x00},
{0x26, 0x49, 0x49, 0x49, 0x3e, 0x00},
